{
  "body": "----------------------------494971147572458222007814\r\nContent-Disposition: form-data; name=\"image\"; filename=\"150.png\"\r\nContent-Type: image/png\r\n\r\nPNG\r\n\u001a\n\u0000\u0000\u0000\rIHDR\u0000\u0000\u0000\u0000\u0000\u0000\u0004\u0003\u0000\u0000\u0000Î/lÑ\u0000\u0000\u0000\u001bPLTEÌÌÌªªª···ÅÅÅ¾¾¾±±±£££*pÆ\u0000\u0000\u0000\tpHYs\u0000\u0000\u000eÄ\u0000\u0000\u000eÄ\u0001+\u000e\u001b\u0000\u0000\u0001\u0000IDAThíÒ1o0\u0018á1&£\t´s!3Þ:ÂÐª\u001d\u0018PÆDQR©ýÙý\fi;µ÷ô\u0006\u001c\u0003DDDDDDDDDD´IÓ\u0016ÇÛßd§É|\u0015¡­-ÔÐ×Ñã¡üY&×ç)\"ßOZÕÂä:\u0003¢ÔNÓ}`ëÅ!y/-£\u0011¸ª\u0013 ßì4åx\u000el¡Âê¼AUÆÒr®E[?é\u001cÍV×´/ ÙàÞêÎÊ£à\u001cÑ8¿Éî->\u0016½\u0017\u0010Ûù¼Ö¿­Ø.:/\u0007sÿñ\t8¾\u0016sËO\u0003vá­õåPÈýª¡35Î-?¹þ!¼\u0015åÎû{¯F¿|ËO\u000bî=\u0011\u0011\u0011\u0011\u0011\u0011\u0011\u0011\u0011ý?ßY¥%Qð®\u0000\u0000\u0000\u0000IEND®B`\r\n----------------------------494971147572458222007814--\r\n",
  "headers": {
    "User-Agent": "PostmanRuntime/7.26.10",
    "Accept": "*/*",
    "Cache-Control": "no-cache",
    "Postman-Token": "dc0ecb74-9e95-45f7-9e87-4e783ce895a0",
    "Host": "localhost:4000",
    "Accept-Encoding": "gzip, deflate, br",
    "Connection": "keep-alive",
    "Content-Type": "multipart/form-data; boundary=--------------------------494971147572458222007814",
    "Content-Length": "578"
  },
  "httpMethod": "POST",
  "isBase64Encoded": false,
  "multiValueHeaders": {
    "User-Agent": ["PostmanRuntime/7.26.10"],
    "Accept": ["*/*"],
    "Cache-Control": ["no-cache"],
    "Postman-Token": ["dc0ecb74-9e95-45f7-9e87-4e783ce895a0"],
    "Host": ["localhost:4000"],
    "Accept-Encoding": ["gzip, deflate, br"],
    "Connection": ["keep-alive"],
    "Content-Type": [
      "multipart/form-data; boundary=--------------------------494971147572458222007814"
    ],
    "Content-Length": ["578"]
  },
  "multiValueQueryStringParameters": {
    "baz": ["qux", "quux"],
    "foo": ["bar"]
  },
  "path": "/bar",
  "pathParameters": {
    "foo": "bar"
  },
  "queryStringParameters": {
    "baz": "quux",
    "foo": "bar"
  },
  "requestContext": {
    "accountId": "offlineContext_accountId",
    "apiId": "offlineContext_apiId",
    "authorizer": {
      "principalId": "offlineContext_authorizer_principalId"
    },
    "domainName": "offlineContext_domainName",
    "domainPrefix": "offlineContext_domainPrefix",
    "extendedRequestId": "ckouzx0y80009l6elffbu2krk",
    "httpMethod": "POST",
    "identity": {
      "accessKey": null,
      "accountId": "offlineContext_accountId",
      "apiKey": "offlineContext_apiKey",
      "caller": "offlineContext_caller",
      "cognitoAuthenticationProvider": "offlineContext_cognitoAuthenticationProvider",
      "cognitoAuthenticationType": "offlineContext_cognitoAuthenticationType",
      "cognitoIdentityId": "offlineContext_cognitoIdentityId",
      "cognitoIdentityPoolId": "offlineContext_cognitoIdentityPoolId",
      "principalOrgId": null,
      "sourceIp": "127.0.0.1",
      "user": "offlineContext_user",
      "userAgent": "PostmanRuntime/7.26.10",
      "userArn": "offlineContext_userArn"
    },
    "path": "/bar",
    "protocol": "HTTP/1.1",
    "requestId": "ckouzx0y8000al6eldrge6tg6",
    "requestTime": "19/May/2021:12:59:30 +0800",
    "requestTimeEpoch": 1621400370698,
    "resourceId": "offlineContext_resourceId",
    "resourcePath": "/dev/{foo}",
    "stage": "dev"
  },
  "resource": "/dev/{foo}"
}
